<svg width="40" height="41" viewBox="0 0 40 41" fill="none" xmlns="http://www.w3.org/2000/svg">
<path d="M0 10.0037C0 4.48081 4.47715 0.00366211 10 0.00366211H30C35.5229 0.00366211 40 4.48081 40 10.0037V30.0037C40 35.5265 35.5229 40.0037 30 40.0037H10C4.47715 40.0037 0 35.5265 0 30.0037V10.0037Z" fill="#004643"/>
<path d="M16.8833 26.8162C16.5888 26.8162 16.35 26.5774 16.35 26.2828V25.4813C16.35 25.4453 16.3208 25.4162 16.2849 25.4162C16.2631 25.4162 16.2428 25.4271 16.2305 25.445C16.0458 25.7145 15.799 25.9716 15.49 26.2162C14.77 26.7495 13.99 27.0162 13.15 27.0162C11.9633 27.0162 10.93 26.5362 10.05 25.5762C9.18333 24.6028 8.75 23.3828 8.75 21.9162C8.75 20.4628 9.18333 19.2495 10.05 18.2762C10.93 17.3028 11.9633 16.8162 13.15 16.8162C13.99 16.8162 14.77 17.0828 15.49 17.6162C15.799 17.8608 16.0458 18.1178 16.2305 18.3873C16.2428 18.4053 16.2631 18.4162 16.2849 18.4162C16.3208 18.4162 16.35 18.387 16.35 18.351V13.3495C16.35 13.0549 16.5888 12.8162 16.8833 12.8162H18.5167C18.8112 12.8162 19.05 13.0549 19.05 13.3495V26.2828C19.05 26.5774 18.8112 26.8162 18.5167 26.8162H16.8833ZM12.17 23.7762C12.65 24.2695 13.2433 24.5162 13.95 24.5162C14.6567 24.5162 15.25 24.2695 15.73 23.7762C16.21 23.2828 16.45 22.6628 16.45 21.9162C16.45 21.1695 16.21 20.5495 15.73 20.0562C15.25 19.5628 14.6567 19.3162 13.95 19.3162C13.2433 19.3162 12.65 19.5628 12.17 20.0562C11.69 20.5495 11.45 21.1695 11.45 21.9162C11.45 22.6628 11.69 23.2828 12.17 23.7762Z" fill="#F9BC60"/>
<path d="M22.2857 26.8162C21.9911 26.8162 21.7523 26.5774 21.7523 26.2828V17.5495C21.7523 17.2549 21.9911 17.0162 22.2857 17.0162H23.919C24.2136 17.0162 24.4523 17.2549 24.4523 17.5495V18.3499C24.4523 18.3865 24.482 18.4162 24.5186 18.4162C24.5398 18.4162 24.5597 18.406 24.5723 18.3889C24.781 18.1063 25.021 17.8487 25.2923 17.6162C25.9323 17.0828 26.6523 16.8162 27.4523 16.8162C28.479 16.8162 29.3323 17.1962 30.0123 17.9562C30.7057 18.7028 31.0523 19.6895 31.0523 20.9162V26.2828C31.0523 26.5774 30.8136 26.8162 30.519 26.8162H28.8857C28.5911 26.8162 28.3523 26.5774 28.3523 26.2828V21.3162C28.3523 20.7162 28.1923 20.2495 27.8723 19.9162C27.5523 19.5828 27.1123 19.4162 26.5523 19.4162C25.9523 19.4162 25.4523 19.6228 25.0523 20.0362C24.6523 20.4495 24.4523 20.9762 24.4523 21.6162V26.2828C24.4523 26.5774 24.2136 26.8162 23.919 26.8162H22.2857Z" fill="#F9BC60"/>
</svg>
