<svg width="197" height="40" viewBox="0 0 197 40" fill="none" xmlns="http://www.w3.org/2000/svg">
<g clip-path="url(#clip0_1010_2477)">
<path d="M17.4213 40L9.24282 11.2071H9.01877C9.09343 11.954 9.16816 12.9623 9.24282 14.2321C9.31755 15.5018 9.39221 16.8836 9.46693 18.3773C9.54159 19.8338 9.57892 21.2529 9.57892 22.6346V40H0V0.00366211H14.3964L21.8677 28.4044H22.0918L29.395 0.00366211H43.7915V40H33.8764V22.4666C33.8764 21.1968 33.8951 19.8524 33.9324 18.4333C33.9698 16.9769 34.0258 15.6138 34.1005 14.3441C34.1752 13.037 34.2312 12.01 34.2685 11.2631H34.0445L25.978 40H17.4213Z" fill="#50BE14"/>
<path d="M57.7985 40H46.9872V7.97913H34.1006V0.00366211H70.0217V7.97913H57.7985V40Z" fill="#50BE14"/>
<path d="M74.9438 0.00366211C80.732 0.00366211 84.8589 0.86259 87.3233 2.58045C89.7885 4.29832 91.0203 6.76308 91.0203 9.97472C91.0203 11.73 90.703 13.2238 90.0684 14.4561C89.4332 15.6511 88.6306 16.6034 87.6593 17.313C86.7261 18.0225 85.7548 18.508 84.7469 18.7695V19.0496C85.8295 19.3109 86.9127 19.7591 87.996 20.394C89.0785 21.0288 89.9751 21.9811 90.6844 23.2508C91.4316 24.4832 91.8049 26.1637 91.8049 28.2924C91.8049 31.9148 90.4417 34.7717 87.7153 36.863C84.9896 38.9543 81.2739 40 76.5683 40H60.9954V0.00366211H74.9438ZM75.0558 15.3524C76.8483 15.3524 78.0995 14.9789 78.8088 14.2321C79.5554 13.4851 79.9294 12.5889 79.9294 11.5432C79.9294 9.30252 78.2302 8.18215 74.8318 8.18215H71.8068V15.3524H75.0558ZM71.8068 23.2508V31.6534H75.6158C77.4829 31.6534 78.7901 31.2613 79.5367 30.477C80.284 29.6555 80.6573 28.6285 80.6573 27.3961C80.6573 26.3131 80.284 25.3608 79.5367 24.5392C78.7901 23.6803 77.4083 23.2508 75.3918 23.2508H71.8068Z" fill="#50BE14"/>
<path d="M96.7825 11.336V4.49219H97.7597L100.351 7.81632L102.942 4.49219H103.919V11.336H102.844V6.30091L100.351 9.47837L97.8577 6.30091V11.336H96.7825Z" fill="#11253D"/>
<path d="M105.872 11.336V4.49219H110.711V5.51876H106.947V7.27857H109.929V8.30515H106.947V10.3094H110.809V11.336H105.872Z" fill="#11253D"/>
<path d="M112.23 11.336V4.49219H114.528C115.519 4.49219 116.359 4.83112 117.051 5.50898C117.748 6.18033 118.097 6.982 118.097 7.91411C118.097 8.84616 117.748 9.65109 117.051 10.329C116.359 11.0003 115.519 11.336 114.528 11.336H112.23ZM113.306 10.3583H114.528C115.232 10.3583 115.822 10.1236 116.297 9.65436C116.78 9.1786 117.021 8.59845 117.021 7.91411C117.021 7.22971 116.78 6.65288 116.297 6.18359C115.822 5.70778 115.232 5.46987 114.528 5.46987H113.306V10.3583Z" fill="#11253D"/>
<path d="M119.611 11.336V4.49219H120.686V11.336H119.611Z" fill="#11253D"/>
<path d="M127.966 9.38052L128.65 10.0649C128.442 10.3256 128.2 10.5537 127.927 10.7493C127.288 11.2055 126.584 11.4337 125.815 11.4337C124.792 11.4337 123.931 11.0947 123.234 10.4168C122.543 9.73248 122.198 8.89816 122.198 7.91399C122.198 6.92974 122.543 6.09872 123.234 5.42086C123.931 4.73648 124.792 4.39429 125.815 4.39429C126.604 4.39429 127.301 4.61589 127.907 5.05911C128.188 5.26769 128.419 5.48604 128.602 5.71417L127.917 6.39855C127.774 6.20301 127.601 6.03354 127.399 5.89015C126.936 5.5447 126.408 5.37198 125.815 5.37198C125.105 5.37198 124.501 5.61966 124.006 6.11502C123.517 6.60387 123.273 7.20352 123.273 7.91399C123.273 8.62439 123.517 9.22733 124.006 9.72269C124.501 10.2115 125.105 10.456 125.815 10.456C126.408 10.456 126.942 10.2767 127.418 9.9182C127.646 9.75528 127.829 9.57603 127.966 9.38052Z" fill="#11253D"/>
<path d="M129.922 11.336V4.49219H130.998V11.336H129.922Z" fill="#11253D"/>
<path d="M132.949 11.336V4.49219H133.926L137.691 9.5273V4.49219H138.766V11.336H137.789L134.024 6.30091V11.336H132.949Z" fill="#11253D"/>
<path d="M140.721 11.336V4.49219H145.561V5.51876H141.796V7.27857H144.778V8.30515H141.796V10.3094H145.658V11.336H140.721Z" fill="#11253D"/>
<path d="M98.0529 23.3348V17.5175H95.9998V16.491H101.182V17.5175H99.1288V23.3348H98.0529Z" fill="#11253D"/>
<path d="M102.358 23.3348V16.491H105.193C105.845 16.491 106.383 16.6963 106.806 17.1069C107.23 17.5175 107.442 18.0292 107.442 18.6419C107.442 19.2611 107.223 19.776 106.787 20.1866C106.592 20.3626 106.373 20.4995 106.132 20.5973L107.686 23.3348H106.464L105.046 20.7928H103.433V23.3348H102.358ZM103.433 19.8151H105.193C105.539 19.8151 105.819 19.7076 106.034 19.4925C106.256 19.2709 106.366 18.9873 106.366 18.6419C106.366 18.2965 106.256 18.0162 106.034 17.8011C105.819 17.5795 105.539 17.4687 105.193 17.4687H103.433V19.8151Z" fill="#11253D"/>
<path d="M108.228 23.3348L110.966 16.491H112.139L114.877 23.3348H113.752L113.068 21.575H110.037L109.353 23.3348H108.228ZM110.428 20.5973H112.677L111.552 17.762L110.428 20.5973Z" fill="#11253D"/>
<path d="M115.954 23.3348V16.491H116.932L120.696 21.5261V16.491H121.772V23.3348H120.794L117.029 18.2997V23.3348H115.954Z" fill="#11253D"/>
<path d="M123.042 22.4061L123.775 21.6728C123.879 21.8097 124.016 21.9401 124.185 22.0639C124.563 22.3246 124.997 22.455 125.486 22.455C125.909 22.455 126.242 22.3572 126.483 22.1617C126.731 21.9596 126.854 21.7152 126.854 21.4284C126.854 21.1937 126.763 21.0015 126.581 20.8516C126.405 20.6951 126.183 20.5811 125.916 20.5093C125.649 20.4377 125.359 20.3497 125.046 20.2454C124.733 20.1411 124.443 20.027 124.175 19.9032C123.909 19.7793 123.683 19.5806 123.501 19.3068C123.325 19.0331 123.237 18.6974 123.237 18.2998C123.237 17.7653 123.452 17.3156 123.882 16.9506C124.313 16.579 124.879 16.3933 125.583 16.3933C126.183 16.3933 126.718 16.54 127.187 16.8333C127.408 16.9636 127.591 17.1102 127.734 17.2732L127.001 18.0065C126.884 17.8761 126.763 17.7719 126.639 17.6936C126.314 17.4785 125.962 17.371 125.583 17.371C125.186 17.371 124.873 17.4622 124.645 17.6447C124.423 17.8207 124.313 18.0391 124.313 18.2998C124.313 18.5344 124.401 18.73 124.577 18.8864C124.759 19.0363 124.984 19.1471 125.251 19.2188C125.519 19.2905 125.809 19.3785 126.121 19.4828C126.434 19.5871 126.725 19.7011 126.991 19.825C127.258 19.9488 127.48 20.1476 127.656 20.4213C127.839 20.6951 127.93 21.0308 127.93 21.4284C127.93 21.9889 127.705 22.4648 127.255 22.8558C126.812 23.2403 126.223 23.4327 125.486 23.4327C124.769 23.4327 124.153 23.2631 123.638 22.9242C123.416 22.7874 123.217 22.6147 123.042 22.4061Z" fill="#11253D"/>
<path d="M129.302 23.3348V16.491H132.039C132.698 16.491 133.245 16.7028 133.682 17.1265C134.118 17.5501 134.337 18.0716 134.337 18.6908C134.337 19.31 134.118 19.8314 133.682 20.2551C133.245 20.6788 132.698 20.8906 132.039 20.8906H130.377V23.3348H129.302ZM130.377 19.9129H132.039C132.378 19.9129 132.665 19.7956 132.9 19.561C133.14 19.3263 133.261 19.0363 133.261 18.6908C133.261 18.3453 133.14 18.0553 132.9 17.8206C132.665 17.586 132.378 17.4687 132.039 17.4687H130.377V19.9129Z" fill="#11253D"/>
<path d="M135.756 23.3348V16.491H136.832V22.3082H140.156V23.3348H135.756Z" fill="#11253D"/>
<path d="M140.452 23.3348L143.19 16.491H144.363L147.101 23.3348H145.976L145.291 21.575H142.261L141.576 23.3348H140.452ZM142.652 20.5973H144.901L143.776 17.762L142.652 20.5973Z" fill="#11253D"/>
<path d="M148.178 23.3348V16.491H149.155L152.919 21.5261V16.491H153.995V23.3348H153.017L149.253 18.2997V23.3348H148.178Z" fill="#11253D"/>
<path d="M157.22 23.3348V17.5175H155.167V16.491H160.349V17.5175H158.296V23.3348H157.22Z" fill="#11253D"/>
<path d="M162.703 18.114C162.214 18.6028 161.97 19.2025 161.97 19.913C161.97 20.6234 162.214 21.2263 162.703 21.7217C163.198 22.2105 163.802 22.455 164.512 22.455C165.222 22.455 165.822 22.2105 166.311 21.7217C166.806 21.2263 167.054 20.6234 167.054 19.913C167.054 19.2025 166.806 18.6028 166.311 18.114C165.822 17.6187 165.222 17.371 164.512 17.371C163.802 17.371 163.198 17.6187 162.703 18.114ZM161.93 22.4158C161.24 21.7315 160.895 20.8972 160.895 19.913C160.895 18.9287 161.24 18.0978 161.93 17.4199C162.628 16.7355 163.488 16.3933 164.512 16.3933C165.535 16.3933 166.392 16.7355 167.083 17.4199C167.781 18.0978 168.129 18.9287 168.129 19.913C168.129 20.8972 167.781 21.7315 167.083 22.4158C166.392 23.0937 165.535 23.4327 164.512 23.4327C163.488 23.4327 162.628 23.0937 161.93 22.4158Z" fill="#11253D"/>
<path d="M169.641 23.3348V16.491H170.716V22.3082H174.041V23.3348H169.641Z" fill="#11253D"/>
<path d="M176.194 18.114C175.705 18.6028 175.461 19.2025 175.461 19.913C175.461 20.6234 175.705 21.2263 176.194 21.7217C176.689 22.2105 177.293 22.455 178.003 22.455C178.713 22.455 179.313 22.2105 179.802 21.7217C180.297 21.2263 180.545 20.6234 180.545 19.913C180.545 19.2025 180.297 18.6028 179.802 18.114C179.313 17.6187 178.713 17.371 178.003 17.371C177.293 17.371 176.689 17.6187 176.194 18.114ZM175.422 22.4158C174.731 21.7315 174.385 20.8972 174.385 19.913C174.385 18.9287 174.731 18.0978 175.422 17.4199C176.119 16.7355 176.98 16.3933 178.003 16.3933C179.026 16.3933 179.884 16.7355 180.574 17.4199C181.272 18.0978 181.62 18.9287 181.62 19.913C181.62 20.8972 181.272 21.7315 180.574 22.4158C179.884 23.0937 179.026 23.4327 178.003 23.4327C176.98 23.4327 176.119 23.0937 175.422 22.4158Z" fill="#11253D"/>
<path d="M186.75 20.6951V19.7174H189.243V22.1128C189.034 22.3604 188.783 22.5821 188.489 22.7776C187.851 23.2143 187.124 23.4327 186.31 23.4327C185.286 23.4327 184.426 23.0937 183.728 22.4158C183.037 21.7315 182.692 20.8972 182.692 19.913C182.692 18.9287 183.037 18.0978 183.728 17.4199C184.426 16.7355 185.286 16.3933 186.31 16.3933C187.098 16.3933 187.795 16.6149 188.401 17.0581C188.682 17.2667 188.913 17.485 189.096 17.7132L188.411 18.3975C188.268 18.202 188.095 18.0326 187.893 17.8892C187.43 17.5437 186.902 17.371 186.31 17.371C185.599 17.371 184.996 17.6187 184.5 18.114C184.012 18.6028 183.767 19.2025 183.767 19.913C183.767 20.6234 184.012 21.2263 184.5 21.7217C184.996 22.2105 185.599 22.455 186.31 22.455C186.831 22.455 187.293 22.3344 187.697 22.0932C187.873 21.9889 188.03 21.8651 188.167 21.7217V20.6951H186.75Z" fill="#11253D"/>
<path d="M192.47 23.3348V20.8906L189.879 16.491H191.102L193.008 19.8151L194.915 16.491H196.137L193.546 20.8906V23.3348H192.47Z" fill="#11253D"/>
<path d="M96.7825 35.3338V28.49H99.5196C100.12 28.49 100.611 28.666 100.996 29.0179C101.381 29.3699 101.573 29.7969 101.573 30.2988C101.573 30.7029 101.433 31.0581 101.153 31.3644C101.041 31.4882 100.905 31.5893 100.742 31.6675C100.963 31.7522 101.159 31.8761 101.329 32.039C101.719 32.378 101.915 32.8081 101.915 33.3295C101.915 33.8771 101.7 34.3497 101.27 34.7472C100.846 35.1383 100.311 35.3338 99.6662 35.3338H96.7825ZM97.8577 34.405H99.6662C100.012 34.405 100.292 34.2975 100.507 34.0824C100.729 33.8673 100.839 33.6001 100.839 33.2807C100.839 32.9613 100.729 32.6941 100.507 32.479C100.292 32.2639 100.012 32.1563 99.6662 32.1563H97.8577V34.405ZM97.8577 31.2764H99.5196C99.8129 31.2764 100.048 31.1917 100.223 31.0222C100.406 30.8462 100.497 30.6214 100.497 30.3476C100.497 30.0738 100.406 29.8523 100.223 29.6828C100.048 29.5068 99.8129 29.4188 99.5196 29.4188H97.8577V31.2764Z" fill="#11253D"/>
<path d="M103.427 35.3338V28.49H104.503V35.3338H103.427Z" fill="#11253D"/>
<path d="M107.823 30.1128C107.334 30.6016 107.089 31.2013 107.089 31.9118C107.089 32.6222 107.334 33.2251 107.823 33.7205C108.318 34.2093 108.921 34.4537 109.631 34.4537C110.342 34.4537 110.942 34.2093 111.43 33.7205C111.926 33.2251 112.174 32.6222 112.174 31.9118C112.174 31.2013 111.926 30.6016 111.43 30.1128C110.942 29.6174 110.342 29.3697 109.631 29.3697C108.921 29.3697 108.318 29.6174 107.823 30.1128ZM107.05 34.4146C106.359 33.7303 106.014 32.8959 106.014 31.9118C106.014 30.9275 106.359 30.0965 107.05 29.4187C107.748 28.7343 108.608 28.3921 109.631 28.3921C110.654 28.3921 111.512 28.7343 112.203 29.4187C112.9 30.0965 113.249 30.9275 113.249 31.9118C113.249 32.8959 112.9 33.7303 112.203 34.4146C111.512 35.0925 110.654 35.4314 109.631 35.4314C108.608 35.4314 107.748 35.0925 107.05 34.4146Z" fill="#11253D"/>
<path d="M114.761 35.3338V28.49H119.6V29.5166H115.836V31.2764H118.818V32.303H115.836V34.3073H119.698V35.3338H114.761Z" fill="#11253D"/>
<path d="M121.12 35.3338V28.49H122.097L125.861 33.5251V28.49H126.936V35.3338H125.959L122.195 30.2988V35.3338H121.12Z" fill="#11253D"/>
<path d="M132.509 32.6939V31.7162H135.002V34.1116C134.793 34.3592 134.542 34.5809 134.249 34.7764C133.61 35.2131 132.883 35.4314 132.069 35.4314C131.045 35.4314 130.185 35.0925 129.487 34.4146C128.797 33.7303 128.451 32.8959 128.451 31.9118C128.451 30.9275 128.797 30.0965 129.487 29.4187C130.185 28.7343 131.045 28.3921 132.069 28.3921C132.857 28.3921 133.554 28.6137 134.161 29.0569C134.441 29.2655 134.672 29.4838 134.855 29.712L134.17 30.3963C134.027 30.2008 133.854 30.0313 133.652 29.888C133.19 29.5425 132.662 29.3697 132.069 29.3697C131.358 29.3697 130.755 29.6174 130.26 30.1128C129.771 30.6016 129.527 31.2013 129.527 31.9118C129.527 32.6222 129.771 33.2251 130.26 33.7205C130.755 34.2093 131.358 34.4537 132.069 34.4537C132.59 34.4537 133.053 34.3331 133.457 34.092C133.633 33.9877 133.789 33.8639 133.926 33.7205V32.6939H132.509Z" fill="#11253D"/>
<path d="M136.759 35.3338V28.49H137.834V35.3338H136.759Z" fill="#11253D"/>
<path d="M139.785 35.3338V28.49H140.763L144.527 33.5251V28.49H145.603V35.3338H144.625L140.86 30.2988V35.3338H139.785Z" fill="#11253D"/>
<path d="M147.557 35.3338V28.49H152.397V29.5166H148.632V31.2764H151.614V32.303H148.632V34.3073H152.494V35.3338H147.557Z" fill="#11253D"/>
<path d="M153.916 35.3338V28.49H158.756V29.5166H154.991V31.2764H157.974V32.303H154.991V34.3073H158.854V35.3338H153.916Z" fill="#11253D"/>
<path d="M160.275 35.3338V28.49H163.11C163.762 28.49 164.3 28.6953 164.723 29.1059C165.147 29.5166 165.359 30.0282 165.359 30.6409C165.359 31.2601 165.14 31.775 164.704 32.1857C164.508 32.3616 164.29 32.4986 164.048 32.5963L165.603 35.3338H164.381L162.963 32.7919H161.35V35.3338H160.275ZM161.35 31.8142H163.11C163.455 31.8142 163.736 31.7066 163.951 31.4915C164.172 31.2699 164.283 30.9864 164.283 30.6409C164.283 30.2955 164.172 30.0152 163.951 29.8001C163.736 29.5785 163.455 29.4677 163.11 29.4677H161.35V31.8142Z" fill="#11253D"/>
<path d="M167.025 35.3338V28.49H168.101V35.3338H167.025Z" fill="#11253D"/>
<path d="M170.052 35.3338V28.49H171.029L174.793 33.5251V28.49H175.869V35.3338H174.891L171.127 30.2988V35.3338H170.052Z" fill="#11253D"/>
<path d="M181.441 32.6939V31.7162H183.934V34.1116C183.725 34.3592 183.475 34.5809 183.181 34.7764C182.543 35.2131 181.816 35.4314 181.001 35.4314C179.978 35.4314 179.117 35.0925 178.42 34.4146C177.729 33.7303 177.383 32.8959 177.383 31.9118C177.383 30.9275 177.729 30.0965 178.42 29.4187C179.117 28.7343 179.978 28.3921 181.001 28.3921C181.79 28.3921 182.487 28.6137 183.093 29.0569C183.373 29.2655 183.605 29.4838 183.787 29.712L183.103 30.3963C182.959 30.2008 182.787 30.0313 182.585 29.888C182.122 29.5425 181.594 29.3697 181.001 29.3697C180.29 29.3697 179.688 29.6174 179.192 30.1128C178.703 30.6016 178.459 31.2013 178.459 31.9118C178.459 32.6222 178.703 33.2251 179.192 33.7205C179.688 34.2093 180.29 34.4537 181.001 34.4537C181.522 34.4537 181.986 34.3331 182.39 34.092C182.565 33.9877 182.721 33.8639 182.859 33.7205V32.6939H181.441Z" fill="#11253D"/>
</g>
<defs>
<clipPath id="clip0_1010_2477">
<rect width="196.649" height="39.9963" fill="white" transform="translate(0 0.00366211)"/>
</clipPath>
</defs>
</svg>
