<svg width="150" height="150" viewBox="0 0 150 150" fill="none" xmlns="http://www.w3.org/2000/svg">
<circle cx="75" cy="75" r="73" stroke="#250AD0" stroke-width="4"/>
<path d="M75 43C72.8 43 71 44.8 71 47C71 49.2 72.8 51 75 51C77.2 51 79 49.2 79 47C79 44.8 77.2 43 75 43ZM75 49C73.9 49 73 48.1 73 47C73 45.9 73.9 45 75 45C76.1 45 77 45.9 77 47C77 48.1 76.1 49 75 49Z" fill="#250AD0"/>
<path d="M56 43C53.8 43 52 44.8 52 47C52 49.2 53.8 51 56 51C58.2 51 60 49.2 60 47C60 44.8 58.2 43 56 43ZM56 49C54.9 49 54 48.1 54 47C54 45.9 54.9 45 56 45C57.1 45 58 45.9 58 47C58 48.1 57.1 49 56 49Z" fill="#250AD0"/>
<path d="M94 43C91.8 43 90 44.8 90 47C90 49.2 91.8 51 94 51C96.2 51 98 49.2 98 47C98 44.8 96.2 43 94 43ZM94 49C92.9 49 92 48.1 92 47C92 45.9 92.9 45 94 45C95.1 45 96 45.9 96 47C96 48.1 95.1 49 94 49Z" fill="#250AD0"/>
<path d="M136 55.9C136 53.8 135.2 51.8 133.7 50.3C132.2 48.8 130.2 48 128.1 48C126 48 124 48.8 122.5 50.3C122.1 49.9 121.5 49.9 121.1 50.3L106.1 65.3V54V40C106.1 39.4 105.7 39 105.1 39H45C44.4 39 44 39.4 44 40V54V114C44 114.6 44.4 115 45 115H105C105.1 115 105.3 115 105.4 114.9C105.4 114.9 105.5 114.9 105.5 114.8C105.6 114.8 105.6 114.7 105.7 114.7L105.8 114.6C105.8 114.5 105.9 114.5 105.9 114.4V114.3V114.2C105.9 114.2 105.9 114.2 105.9 114.1C105.9 114.1 105.9 114.1 105.9 114V91C105.9 90.9 105.9 90.8 105.8 90.7L130 66.5L133.5 63C133.7 62.8 133.8 62.6 133.8 62.3C133.8 62 133.7 61.8 133.5 61.6C135.2 60 136 58.1 136 55.9ZM128.1 50C129.7 50 131.2 50.6 132.3 51.7C133.4 52.8 134 54.3 134 55.9C134 57.5 133.4 59 132.3 60.1L123.9 51.7C125 50.6 126.5 50 128.1 50ZM100 93.8L97.9 91.7L125.9 63.7L128 65.8L100 93.8ZM88 93L91 96L87.3 96.7L88 93ZM93.3 95.5L88.5 90.7L89.4 86L98 94.6L93.3 95.5ZM96.5 90.3L93.7 87.5L121.7 59.5L124.5 62.3L96.5 90.3ZM92.3 86.1L90.2 84L118.2 56L120.3 58.1L92.3 86.1ZM46 41H104V53H46V41ZM46 113V87.4C57.1 103.4 76.4 110.2 89.9 113H46ZM47.2 85.6C55.5 87.6 63.6 87.5 71.2 85.3C72.1 89.5 76.4 104 96 112.1C83.1 110.1 59.4 104.1 47.2 85.6ZM104 112.7C75.3 104.7 73 84.1 73 83.9C73 83.6 72.8 83.3 72.6 83.2C72.3 83 72 83 71.7 83C63.6 85.6 55 85.6 46 83.2V55H104V67C104 67.1 104 67.2 104.1 67.3L88.1 83.3C88.1 83.3 88.1 83.3 88.1 83.4C88.1 83.5 88 83.5 88 83.6C88 83.7 87.9 83.7 87.9 83.8V83.9L85.1 97.9C85 98.2 85.1 98.6 85.4 98.8C85.6 99 85.8 99.1 86.1 99.1C86.2 99.1 86.2 99.1 86.3 99.1L100.3 96.3H100.4C100.5 96.3 100.5 96.3 100.6 96.2C100.7 96.2 100.7 96.1 100.8 96.1H100.9L104.2 92.8V112.7H104ZM129.5 64.3L119.7 54.5L121.8 52.4L131.6 62.2L129.5 64.3Z" fill="#250AD0"/>
<path d="M59 61H91C91.6 61 92 60.6 92 60C92 59.4 91.6 59 91 59H59C58.4 59 58 59.4 58 60C58 60.6 58.4 61 59 61Z" fill="#250AD0"/>
<path d="M50 67H100C100.6 67 101 66.6 101 66C101 65.4 100.6 65 100 65H50C49.4 65 49 65.4 49 66C49 66.6 49.4 67 50 67Z" fill="#250AD0"/>
<path d="M50 72H97C97.6 72 98 71.6 98 71C98 70.4 97.6 70 97 70H50C49.4 70 49 70.4 49 71C49 71.6 49.4 72 50 72Z" fill="#250AD0"/>
<path d="M50 77H92C92.6 77 93 76.6 93 76C93 75.4 92.6 75 92 75H50C49.4 75 49 75.4 49 76C49 76.6 49.4 77 50 77Z" fill="#250AD0"/>
<path d="M87 81C87 80.4 86.6 80 86 80H50C49.4 80 49 80.4 49 81C49 81.6 49.4 82 50 82H86C86.6 82 87 81.6 87 81Z" fill="#250AD0"/>
</svg>
